{
    "images":[
        "1.png",
        "2.png",
        "3.png",
        "4.png",
        "5.png",
        "6.png",
        "7.png",
        "8.png",
        "9.png"
    ],
    "speed":8,
    "direction":"east",
    "millisPerImage":150
}
